…
```r
a_dict %>% group_by(unique_mos_id) %>% summarize(count = n()) %>% arrange(desc(count))
```

```
## # A tibble: 3,996 x 2
##    unique_mos_id count
##            <dbl> <int>
##  1         18731    29
##  2         19489    27
##  3         18589    26
##  4         22775    25
##  5         25861    24
##  6         20982    21
##  7         22881    21
##  8         23903    20
##  9          2622    19
## 10         10039    19
## # … with 3,986 more rows
```
…
```r
# only look at the past five years to account for careers ending
# don't have a variable for when the incident occurred?
#sub <- a["year_received" > 2015, ]
#sub$month_received <- ifelse(length(sub$month_received == 1), paste0("0", sub$month_received), sub$month_received)
#sub$date <- as.yearmon(paste(sub$year_received, sub$month_received, sep = "-"))

# perhaps later look at the frequency of complaints?
summarize(group_by(filter(a, year_received > 2015), precinct), count = n()) %>% mutate(total = sum(count))
```

```
## # A tibble: 79 x 3
##    precinct count total
##       <dbl> <int> <int>
##  1        1    68  8450
##  2        5    65  8450
##  3        6    53  8450
##  4        7    47  8450
##  5        9    68  8450
##  6       10    66  8450
##  7       13    46  8450
##  8       14    77  8450
##  9       17    19  8450
## 10       18   104  8450
## # … with 69 more rows
```
…
