…
```
## Adding missing grouping variables: `unique_mos_id`
```

```
## # A tibble: 368 x 4
## # Groups:   unique_mos_id [5]
##    unique_mos_id last_name year_received incident
##            <dbl> <chr>             <dbl>    <int>
##  1         18530 Tallarine          1991        1
##  2         18530 Tallarine          1989        2
##  3         18530 Tallarine          1989        3
##  4         18530 Tallarine          1989        4
##  5         18530 Tallarine          1989        5
##  6         18530 Tallarine          1989        6
##  7         18530 Tallarine          1989        7
##  8         18530 Tallarine          1989        8
##  9         18530 Tallarine          1989        9
## 10         18530 Tallarine          1990       10
## # … with 358 more rows
```
…
The median response time to allegations is just over half a year.

Finally, we can take a look at where the allegations occur.

### Most Frequent Allegation Location





```
## # A tibble: 79 x 3
##    precinct count total
##       <dbl> <int> <int>
##  1        1    68  8450
##  2        5    65  8450
##  3        6    53  8450
##  4        7    47  8450
##  5        9    68  8450
##  6       10    66  8450
##  7       13    46  8450
##  8       14    77  8450
##  9       17    19  8450
## 10       18   104  8450
## # … with 69 more rows
```
…
